\relax 
\providecommand\hyper@newdestlabel[2]{}
\catcode `"\active 
\catcode `<\active 
\catcode `>\active 
\@nameuse{es@quoting}
\providecommand\HyperFirstAtBeginDocument{\AtBeginDocument}
\HyperFirstAtBeginDocument{\ifx\hyper@anchor\@undefined
\global\let\oldcontentsline\contentsline
\gdef\contentsline#1#2#3#4{\oldcontentsline{#1}{#2}{#3}}
\global\let\oldnewlabel\newlabel
\gdef\newlabel#1#2{\newlabelxx{#1}#2}
\gdef\newlabelxx#1#2#3#4#5#6{\oldnewlabel{#1}{{#2}{#3}}}
\AtEndDocument{\ifx\hyper@anchor\@undefined
\let\contentsline\oldcontentsline
\let\newlabel\oldnewlabel
\fi}
\fi}
\global\let\hyper@last\relax 
\gdef\HyperFirstAtBeginDocument#1{#1}
\providecommand\HyField@AuxAddToFields[1]{}
\providecommand\HyField@AuxAddToCoFields[2]{}
\select@language{spanish}
\@writefile{toc}{\select@language{spanish}}
\@writefile{lof}{\select@language{spanish}}
\@writefile{lot}{\select@language{spanish}}
\@writefile{toc}{\contentsline {section}{\numberline {1}Introducci\IeC {\'o}n}{3}{section.1}}
\@writefile{toc}{\contentsline {section}{\numberline {2}Orden M\'aximo}{3}{section.2}}
\@writefile{toc}{\contentsline {section}{\numberline {3}Riffle Shuffle}{4}{section.3}}
\@writefile{toc}{\contentsline {section}{\numberline {4}Cota para el Orden M\'aximo}{4}{section.4}}
\@writefile{toc}{\contentsline {section}{\numberline {5}Estimaci\IeC {\'o}n de valor esperado y desv\IeC {\'\i }o est\IeC {\'a}ndar del orden m\IeC {\'a}ximo}{5}{section.5}}
\@writefile{toc}{\contentsline {section}{\numberline {6}Estimaci\IeC {\'o}n de valor esperado y desv\IeC {\'\i }o standar usando Riffle Schuffle n veces}{5}{section.6}}
\newlabel{media_100rep}{{6}{5}{Estimación de valor esperado y desvío standar usando Riffle Schuffle n veces}{section.6}{}}
\@writefile{toc}{\contentsline {section}{\numberline {7}\IeC {\textquestiondown }Cu\IeC {\'a}ntas veces mezclar para tener un mazo aleatorio?}{6}{section.7}}
\newlabel{bp_riff5}{{7}{6}{¿Cuántas veces mezclar para tener un mazo aleatorio?}{section.7}{}}
\newlabel{bp_riff6}{{7}{6}{¿Cuántas veces mezclar para tener un mazo aleatorio?}{section.7}{}}
\newlabel{bp_riff7}{{7}{6}{¿Cuántas veces mezclar para tener un mazo aleatorio?}{section.7}{}}
\newlabel{bp_riff8}{{7}{6}{¿Cuántas veces mezclar para tener un mazo aleatorio?}{section.7}{}}
\newlabel{bp_riff9}{{7}{7}{¿Cuántas veces mezclar para tener un mazo aleatorio?}{section.7}{}}
\newlabel{LastPage}{{}{7}{}{page.7}{}}
\xdef\lastpage@lastpage{7}
\xdef\lastpage@lastpageHy{7}
